{
  "border-color": "rgba(151, 151, 151, 0.3)",
  "error": "#E6353B",
  "font-size": "14px",
  "icon-size": "1.2rem",
  "body-background": "#E9E9E9",
  "overlay-color": "rgba(52,73,94,0.4)",
  "placeholder-color": "#808E8F",
  "primary-color": "#1380FE",
  "primary-text-color": "rgb(151, 151, 151)",
  "secondary-color": "#ffc107",
  "secondary-text-color": "#cad8d9",
  "success": "#22A14C",
  "title-color": "#34495E",
  "white": "#FFFFFF"
}
